…
in the `instacart` dataset, there are 1384617 observations of 15
variables. of those 4 are character type and 11 are numeric. some of the
key variables include `order_id` which is the order
identifier,`product_id`, which is the product identifier, and `user_id`,
which is the user identifier.

# how many aisles:

``` r
instacart %>%
  select(aisle_id) %>%
  distinct
```

    ## # A tibble: 134 × 1
    ##    aisle_id
    ##       <int>
    ##  1      120
    ##  2      108
    ##  3       83
    ##  4       95
    ##  5       24
    ##  6       21
    ##  7        2
    ##  8      115
    ##  9       53
    ## 10      123
    ## # … with 124 more rows
    ## # ℹ Use `print(n = ...)` to see more rows

``` r
instacart %>%
  group_by(aisle_id) %>%
  summarize(n_obs = n())
```

    ## # A tibble: 134 × 2
    ##    aisle_id n_obs
    ##       <int> <int>
    ##  1        1  2936
    ##  2        2  3873
    ##  3        3 17449
    ##  4        4  9917
    ##  5        5  2905
    ##  6        6  1795
    ##  7        7  1526
    ##  8        8  1501
    ##  9        9  9736
    ## 10       10   448
    ## # … with 124 more rows
    ## # ℹ Use `print(n = ...)` to see more rows
…
